<?xml version="1.0" encoding="utf-8"?>
<!-- Generator: Adobe Illustrator 23.0.1, SVG Export Plug-In . SVG Version: 6.00 Build 0)  -->
<svg version="1.1" id="Ebene_1" xmlns="http://www.w3.org/2000/svg" xmlns:xlink="http://www.w3.org/1999/xlink" x="0px" y="0px"
	 viewBox="0 0 32 32" style="enable-background:new 0 0 32 32;" xml:space="preserve">
<style type="text/css">
	.st0{fill:#2BBAE7;}
</style>
<g>
	<g>
		<path id="path1" class="st0" d="M41.98,27.14l0.26,0.02c1.22,0.07,1.65,0.39,1.8,0.52c0.17,0.17,0.19,0.41,0.17,0.71
			c0,0.69-0.21,0.86-0.28,0.94c-0.37,0.32-1.16,0.41-1.8,0.39h-0.15V27.14z M43.48,18.63c0.82,0,1.48,0.6,1.48,1.35
			c0,0.73-0.67,1.35-1.48,1.35H42v-2.68C41.98,18.63,43.48,18.63,43.48,18.63z M41.98,10.31h0.06c0.69,0.06,0.86,0.47,0.96,0.75
			c0.26,0.64,0.13,0.86,0.09,0.94c-0.15,0.28-0.54,0.54-0.97,0.73l-0.13,0.06V10.31L41.98,10.31z M29.3,4.31h-4.48
			c-0.41,0-0.75,0.34-0.75,0.75c0,0.41,0.34,0.75,0.75,0.75h4.48c0.41,0,0.75-0.34,0.75-0.75C30.05,4.65,29.71,4.31,29.3,4.31z
			 M18.62,23.09c-0.66-0.6-1.99-1.01-3.43-1.22h-0.04V2.93L39.01,3v35.44l-19.38-0.07c-0.82,0-1.5,0.67-1.5,1.5s0.67,1.5,1.5,1.5
			h14.11l-1.48,4.67c-0.24,0.79,0.19,1.63,0.97,1.89c0.15,0.06,0.3,0.07,0.45,0.07c0.64,0,1.22-0.41,1.42-1.05l1.78-5.58h2.14
			c1.65,0,3-1.31,3-2.92v-5.72h0.02c0.09,0,0.19,0,0.28,0c1.07,0,2.49-0.21,3.56-1.09c0.62-0.52,1.37-1.48,1.37-3.11
			c0.02-0.56,0.04-1.86-1.03-2.94c-0.62-0.62-1.44-1.05-2.51-1.26l-0.07-0.02h0.11C46.11,24.2,48,22.29,48,19.98
			c0-2.4-2.01-4.35-4.48-4.35h-0.51l0.15-0.06c0.92-0.39,1.99-1.05,2.57-2.1c0.39-0.71,0.75-1.87,0.13-3.41
			c-0.66-1.72-1.91-2.66-3.65-2.74h-0.19v-4.4c0-1.61-1.35-2.92-3-2.92H15.15c-1.65,0-3,1.31-3,2.92v14.94l-3.2,3.86H8.8
			c-0.47,0-0.94,0-1.37-0.02H6.49c-1.48,0-2.83,0.39-3.88,1.16c-1.24,0.88-2.68,2.6-2.59,5.75c-0.19,1.99,0.37,10.21,8.23,17.24
			c0.28,0.26,0.64,0.37,0.99,0.37c0.41,0,0.82-0.17,1.12-0.51c0.54-0.62,0.51-1.57-0.11-2.12c-7.72-6.9-7.25-14.64-7.25-14.71
			l0.02-0.3c-0.06-1.54,0.37-2.62,1.33-3.3c0.54-0.39,1.29-0.6,2.12-0.58h0.94c1.71,0.02,4.09,0.02,4.59,0.02
			c1.52-0.11,3.86,0.04,4.59,0.54c0.73,0.51,2.36,2.53-5.3,4.18c-0.73,0.21-1.37,0.6-1.59,1.31c-0.24,0.71-0.06,1.48,0.47,2.01
			c3.28,3.3,3.22,5.23,3.22,5.27c-0.04,0.81,0.54,1.52,1.35,1.61c0.81,0.07,1.52-0.45,1.63-1.24c0.07-0.47,0.22-2.81-2.85-6.43
			c4.67-1.33,6.2-3.79,6.73-4.85C20.83,25.94,19.91,24.16,18.62,23.09z"/>
	</g>
	<g>
		<path id="path1_1_" class="st0" d="M19.25,12.6h-1.31v13.21h1.31V12.6z M22.35,12.6h-1.31v13.21h1.31V12.6z M25.44,12.6h-1.31
			v13.21h1.31V12.6z M28.6,12.6h-1.31v13.21h1.31V12.6z M31.7,12.6h-1.31v13.21h1.31V12.6z M36.31,12.6h-2.64v13.21h2.64V12.6z"/>
	</g>
</g>
</svg>
