<?xml version="1.0" encoding="utf-8"?>
<!-- Generator: Adobe Illustrator 23.0.1, SVG Export Plug-In . SVG Version: 6.00 Build 0)  -->
<svg version="1.1" id="Ebene_1" xmlns="http://www.w3.org/2000/svg" xmlns:xlink="http://www.w3.org/1999/xlink" x="0px" y="0px"
	 viewBox="0 0 32 32" style="enable-background:new 0 0 32 32;" xml:space="preserve">
<style type="text/css">
	.st0{fill:#2BBAE7;}
</style>
<g>
	<g>
		<path id="path1" class="st0" d="M28,18.1l0.2,0c0.8,0,1.1,0.3,1.2,0.3c0.1,0.1,0.1,0.3,0.1,0.5c0,0.5-0.1,0.6-0.2,0.6
			c-0.2,0.2-0.8,0.3-1.2,0.3H28C28,19.8,28,18.1,28,18.1z M29,12.4c0.5,0,1,0.4,1,0.9c0,0.5-0.4,0.9-1,0.9h-1v-1.8
			C28,12.4,29,12.4,29,12.4z M28,6.9L28,6.9c0.5,0,0.6,0.3,0.7,0.5C28.9,7.8,28.8,8,28.8,8c-0.1,0.2-0.4,0.4-0.6,0.5l-0.1,0L28,6.9
			L28,6.9z M19.6,2.9h-3c-0.3,0-0.5,0.2-0.5,0.5s0.2,0.5,0.5,0.5h3c0.3,0,0.5-0.2,0.5-0.5S19.9,2.9,19.6,2.9z M12.5,15.4
			c-0.4-0.4-1.3-0.7-2.3-0.8h0V2l15.9,0v23.6l-12.9,0c-0.5,0-1,0.4-1,1c0,0.6,0.4,1,1,1h9.4l-1,3.1c-0.2,0.5,0.1,1.1,0.6,1.3
			c0.1,0,0.2,0,0.3,0c0.4,0,0.8-0.3,0.9-0.7l1.2-3.7h1.4c1.1,0,2-0.9,2-1.9v-3.8h0c0.1,0,0.1,0,0.2,0c0.7,0,1.7-0.1,2.4-0.7
			c0.4-0.3,0.9-1,0.9-2.1c0-0.4,0-1.2-0.7-2c-0.4-0.4-1-0.7-1.7-0.8l0,0h0.1c1.6-0.1,2.8-1.3,2.8-2.9c0-1.6-1.3-2.9-3-2.9h-0.3
			l0.1,0c0.6-0.3,1.3-0.7,1.7-1.4c0.3-0.5,0.5-1.2,0.1-2.3c-0.4-1.1-1.3-1.8-2.4-1.8h-0.1V2c0-1.1-0.9-1.9-2-1.9H10.2
			c-1.1,0-2,0.9-2,1.9v10L6,14.5H5.9c-0.3,0-0.6,0-0.9,0H4.4c-1,0-1.9,0.3-2.6,0.8C1,15.8,0,17,0.1,19.1c-0.1,1.3,0.2,6.8,5.5,11.5
			c0.2,0.2,0.4,0.2,0.7,0.2c0.3,0,0.5-0.1,0.7-0.3c0.4-0.4,0.3-1-0.1-1.4c-5.1-4.6-4.8-9.8-4.8-9.8l0-0.2c0-1,0.2-1.7,0.9-2.2
			c0.4-0.3,0.9-0.4,1.4-0.4H5c1.1,0,2.7,0,3.1,0c1-0.1,2.6,0,3.1,0.4c0.5,0.3,1.6,1.7-3.5,2.8c-0.5,0.1-0.9,0.4-1.1,0.9
			c-0.2,0.5,0,1,0.3,1.3C9,24,9,25.3,9,25.4c0,0.5,0.4,1,0.9,1.1c0.5,0,1-0.3,1.1-0.8c0-0.3,0.1-1.9-1.9-4.3
			c3.1-0.9,4.1-2.5,4.5-3.2C13.9,17.3,13.3,16.1,12.5,15.4z"/>
	</g>
	<g>
		<path id="path1_1_" class="st0" d="M12.9,8.4H12v8.8h0.9V8.4z M15,8.4h-0.9v8.8H15V8.4z M17,8.4h-0.9v8.8H17V8.4z M19.1,8.4h-0.9
			v8.8h0.9V8.4z M21.2,8.4h-0.9v8.8h0.9V8.4z M24.3,8.4h-1.8v8.8h1.8V8.4z"/>
	</g>
</g>
</svg>
