<?xml version="1.0" encoding="utf-8"?>
<!-- Generator: Adobe Illustrator 23.0.1, SVG Export Plug-In . SVG Version: 6.00 Build 0)  -->
<svg version="1.1" id="Ebene_1" xmlns="http://www.w3.org/2000/svg" xmlns:xlink="http://www.w3.org/1999/xlink" x="0px" y="0px"
	 viewBox="0 0 48 48" style="enable-background:new 0 0 48 48;" xml:space="preserve">
<style type="text/css">
	.st0{fill:#2BBAE7;}
	.st1{fill:#FFFFFF;}
</style>
<circle class="st0" cx="24" cy="24" r="24"/>
<g>
	<path id="XMLID_11347_" class="st1" d="M20.27,32.17c-1.36,0-2.46,1.1-2.46,2.45c0,1.36,1.1,2.46,2.46,2.46
		c1.36,0,2.45-1.1,2.45-2.46C22.72,33.27,21.62,32.17,20.27,32.17z"/>
	<path id="XMLID_11348_" class="st1" d="M30.98,32.17c-1.36,0-2.45,1.1-2.45,2.45c0,1.36,1.1,2.46,2.45,2.46
		c1.36,0,2.45-1.1,2.45-2.46C33.44,33.27,32.34,32.17,30.98,32.17z"/>
	<path id="XMLID_11351_" class="st1" d="M37.23,18.71c-2.84,0-16.25,0-18.72,0c0,0-0.27-2.27-0.42-3.21
		c-0.15-0.94-2.51-2.12-7.57-4.51c-1.19-0.5-2.19,1.68,0,2.82l3.99,1.87c0,0,0.93,0.54,1.01,1.26c0.08,0.73,1.7,12.74,1.7,12.74
		s0.06,1.67,1.58,1.67c1.52,0,13.96,0,15.24,0c1.28,0,1.52-1.33,1.52-1.33l3.02-8.97C38.59,21.05,39.49,18.71,37.23,18.71z
		 M33.51,28.46H19.72l-0.3-2.42H34.2h0.03L33.51,28.46z M34.9,23.75c-3.25,0-13.29,0-15.77,0l-0.32-2.58h16.86L34.9,23.75z"/>
</g>
</svg>
