<?xml version="1.0" encoding="utf-8"?>
<!-- Generator: Adobe Illustrator 23.0.1, SVG Export Plug-In . SVG Version: 6.00 Build 0)  -->
<svg version="1.1" id="Ebene_1" xmlns="http://www.w3.org/2000/svg" xmlns:xlink="http://www.w3.org/1999/xlink" x="0px" y="0px"
	 viewBox="0 0 48 48" style="enable-background:new 0 0 48 48;" xml:space="preserve">
<style type="text/css">
	.st0{fill:#FFFFFF;}
	.st1{fill:#2BBAE7;}
</style>
<circle class="st0" cx="24" cy="24" r="24"/>
<g>
	<path id="XMLID_190_" class="st1" d="M24,11.16c-7.23,0-7.5,2.01-7.5,2.01v21.66c0,0,0.27,2.01,7.5,2.01c7.23,0,7.5-2.01,7.5-2.01
		V13.17C31.5,13.17,31.23,11.16,24,11.16z M29.62,23.32L29.62,23.32l0,10.45H18.38v-9.08l0-10.45h11.25V23.32z"/>
	<g id="XMLID_186_">
		<path id="XMLID_188_" class="st1" d="M36.33,24.05c0-1.5-0.65-2.93-1.8-3.91c-0.16-0.14-0.41-0.13-0.56,0.02l-0.71,0.72
			c-0.08,0.08-0.12,0.18-0.12,0.29c0,0.01,0,0.01,0,0.02c0.01,0.11,0.06,0.22,0.15,0.29c0.77,0.64,1.21,1.57,1.21,2.57
			c0,0.98-0.43,1.91-1.19,2.55c-0.09,0.07-0.14,0.18-0.14,0.3c0,0.12,0.04,0.23,0.12,0.31l0.72,0.71c0.15,0.15,0.4,0.16,0.56,0.02
			C35.69,26.95,36.33,25.53,36.33,24.05z"/>
		<path id="XMLID_187_" class="st1" d="M39.79,24.02c0-2.45-0.98-4.72-2.76-6.41c-0.16-0.15-0.42-0.15-0.57,0.01l-0.71,0.72
			c-0.07,0.08-0.12,0.18-0.12,0.29c0,0,0,0.01,0,0.01c0,0.11,0.05,0.21,0.13,0.29c1.42,1.34,2.2,3.15,2.2,5.1
			c0,1.93-0.77,3.73-2.17,5.07c-0.08,0.08-0.13,0.18-0.13,0.29c0,0.11,0.04,0.22,0.12,0.29l0.72,0.71c0.16,0.16,0.41,0.16,0.57,0
			C38.83,28.71,39.79,26.44,39.79,24.02z"/>
	</g>
	<g id="XMLID_174_">
		<path id="XMLID_181_" class="st1" d="M11.67,23.95c0,1.5,0.65,2.93,1.8,3.91c0.16,0.14,0.41,0.13,0.56-0.02l0.71-0.72
			c0.08-0.08,0.12-0.18,0.12-0.29c0-0.01,0-0.01,0-0.02c-0.01-0.11-0.06-0.22-0.15-0.29c-0.77-0.64-1.21-1.57-1.21-2.57
			c0-0.98,0.43-1.91,1.19-2.55c0.09-0.07,0.14-0.18,0.14-0.3c0-0.12-0.04-0.23-0.12-0.31l-0.72-0.71c-0.15-0.15-0.4-0.16-0.56-0.02
			C12.31,21.05,11.67,22.47,11.67,23.95z"/>
		<path id="XMLID_175_" class="st1" d="M8.21,23.98c0,2.45,0.98,4.72,2.76,6.41c0.16,0.15,0.42,0.15,0.57-0.01l0.71-0.72
			c0.07-0.08,0.12-0.18,0.12-0.29c0,0,0-0.01,0-0.01c0-0.11-0.05-0.21-0.13-0.29c-1.42-1.34-2.2-3.15-2.2-5.1
			c0-1.93,0.77-3.73,2.17-5.07c0.08-0.08,0.13-0.18,0.13-0.29c0-0.11-0.04-0.22-0.12-0.29l-0.72-0.71c-0.16-0.16-0.41-0.16-0.57,0
			C9.17,19.29,8.21,21.56,8.21,23.98z"/>
	</g>
</g>
</svg>
