<?xml version="1.0" encoding="utf-8"?>
<!-- Generator: Adobe Illustrator 24.0.0, SVG Export Plug-In . SVG Version: 6.00 Build 0)  -->
<svg version="1.1" id="Ebene_1" xmlns="http://www.w3.org/2000/svg" xmlns:xlink="http://www.w3.org/1999/xlink" x="0px" y="0px"
	 viewBox="0 0 391 159" style="enable-background:new 0 0 391 159;" xml:space="preserve">
<style type="text/css">
	.st0{clip-path:url(#SVGID_2_);fill:#FFFFFF;}
	.st1{clip-path:url(#SVGID_4_);fill:#FFFFFF;}
	.st2{clip-path:url(#SVGID_6_);fill:#FFFFFF;}
	.st3{clip-path:url(#SVGID_8_);fill:#FFFFFF;}
	.st4{clip-path:url(#SVGID_10_);fill:#FFFFFF;}
	.st5{fill:#FFFFFF;}
	.st6{clip-path:url(#SVGID_12_);fill:#FFFFFF;}
	.st7{fill:none;}
	.st8{font-family:'MyriadPro-Light';}
	.st9{font-size:32px;}
</style>
<g>
	<g>
		<g>
			<defs>
				<rect id="SVGID_1_" width="390.8" height="95.9"/>
			</defs>
			<clipPath id="SVGID_2_">
				<use xlink:href="#SVGID_1_"  style="overflow:visible;"/>
			</clipPath>
			<path class="st0" d="M88.6,61.6C61.4,76.5,18.8,84.8,12.4,80.1c1.2,1.1,4.2,3.8,4.2,3.8l4.5,3.8c12.5,4.3,50.6-7.3,67.4-16.7
				l0,1.8c3-5,4.3-9.4,5.1-12l-5.1-1.1L88.6,61.6L88.6,61.6z"/>
		</g>
		<g>
			<defs>
				<rect id="SVGID_3_" width="390.8" height="95.9"/>
			</defs>
			<clipPath id="SVGID_4_">
				<use xlink:href="#SVGID_3_"  style="overflow:visible;"/>
			</clipPath>
			<path class="st1" d="M82.1,32l1.3,2.7c2.3-6.8,2-16.5,2-16.5c-0.3,0-9.9,3-9.9,3l1.2,1.5C50.3,38.6,1,47.3,0.4,40.9l-0.2,1.6
				c-0.3,2.8-0.3,2.4-0.1,7.5l0.2,1.6C2.2,57.3,50.5,49.7,82.1,32L82.1,32z"/>
		</g>
		<g>
			<defs>
				<rect id="SVGID_5_" width="390.8" height="95.9"/>
			</defs>
			<clipPath id="SVGID_6_">
				<use xlink:href="#SVGID_5_"  style="overflow:visible;"/>
			</clipPath>
			<path class="st2" d="M54.6,4.2l1.6,0.9L54,0.4C51.4,0,49,0,46.1,0L48,0.9c-4.3,3.1-20.6,7.5-23.5,6.6c-1.3-0.4-0.4-1.2,1.6-2.2
				c-2.1,1.1-3.4,1.9-4.9,2.9c-2.1,1.4-2.6,1.9-5.2,4.1c-0.4,0.4-0.7,0.7-0.8,1C13.7,16.4,36.9,13.5,54.6,4.2L54.6,4.2z"/>
		</g>
		<g>
			<defs>
				<rect id="SVGID_7_" width="390.8" height="95.9"/>
			</defs>
			<clipPath id="SVGID_8_">
				<use xlink:href="#SVGID_7_"  style="overflow:visible;"/>
			</clipPath>
			<path class="st3" d="M70,15.6l2.1,2c0-7.1-1.4-11.8-1.4-11.8L60.4,7.7l1.4,1C38.7,21.1,5.9,25.3,8.3,21l-0.5,0.7
				c-1.8,2.6-1.5,2.7-3.7,6.9l-0.9,2c0,0.2-0.1,0.4-0.1,0.5C3,36.6,42.9,30,70,15.6L70,15.6z"/>
		</g>
		<g>
			<defs>
				<rect id="SVGID_9_" width="390.8" height="95.9"/>
			</defs>
			<clipPath id="SVGID_10_">
				<use xlink:href="#SVGID_9_"  style="overflow:visible;"/>
			</clipPath>
			<path class="st4" d="M79.7,84.6l0.2,0.3l1.8-3.5L78.2,81l0.2,0.5c-27.1,14.3-44.5,12.9-47,11.3C34.4,94.8,55,101.8,79.7,84.6
				L79.7,84.6z"/>
		</g>
	</g>
	<path class="st5" d="M94.3,37.3l-9.2,2.1l0.8,2.2c-27,16-77.1,25.7-83.8,20.4c0.4,1.2,1.4,3.8,2.3,5.9C5,69.2,5.7,70.8,6,71.3
		c7.5,5.8,56.9-5.3,82.3-20.1l0.4,3.1C93.6,46.3,94.3,37.3,94.3,37.3L94.3,37.3z"/>
	<polygon class="st5" points="138.8,95.9 119.2,95.9 119.2,21.9 138.8,21.9 	"/>
	<path class="st5" d="M191,79.7c-13.4,0-21.3-8.2-21.3-21.5c0-14.9,9.7-21.5,21-21.5c3.3,0,6,0.4,8.4,1l7.8-14.2
		c-3.4-1.5-9.6-2.8-17.2-2.8c-21.7,0-40.6,13.1-40.6,38.8c0,19.4,12,36.4,39.3,36.4c8.8,0,15.6-1.7,18.4-3l-7.7-14
		C196.5,79.4,193.7,79.7,191,79.7"/>
	<path class="st5" d="M246,50.6c-9.2-3.5-13.1-5-13.1-8.6c0-3.2,3.2-5.4,9.2-5.4c4.9,0,8.9,0.9,12,1.9l7.8-14.1
		c-4.8-2.1-10.9-3.7-19.5-3.7c-18.4,0-29.2,9.9-29.2,22.8c0,10.8,8.1,17.6,20.4,22c8.2,2.8,11.5,4.9,11.5,8.4c0,3.7-3.2,5.9-9.9,5.9
		c-3.7,0-11.4-0.6-14.7-1.5L212.4,93c4.6,1.6,15,2.9,21.6,2.9c21.3,0,31.2-10.8,31.2-23.4C265,62.4,259.1,55.4,246,50.6"/>
	<path class="st5" d="M297.1,44.9c-1.6,0.6-4.7,1.4-8,1.4c-4.2,0-7.5-1.1-9.9-3.3c-2.2-2.1-3.5-5.4-3.5-9.2c0-8,5.7-13,14-13
		c3.1,0,5.5,0.6,6.7,1.2l-1,3.7c-1.4-0.6-3-1.1-5.7-1.1c-5.4,0-9.1,3.2-9.1,9c0,5.7,3.5,9.1,8.7,9.1c1.7,0,2.9-0.2,3.5-0.5v-6.3
		h-4.4v-3.6h8.9L297.1,44.9L297.1,44.9z"/>
	<path class="st5" d="M306.4,32.4h2.7c3.1,0,5-1.6,5-4.1c0-2.7-1.9-4-4.9-4c-1.5,0-2.4,0.1-2.8,0.2V32.4L306.4,32.4z M301.8,21.3
		c1.8-0.3,4.3-0.6,6.9-0.6c3.6,0,6,0.6,7.7,2c1.4,1.1,2.2,2.9,2.2,5.1c0,3.2-2.2,5.4-4.6,6.2v0.1c1.8,0.7,2.9,2.4,3.5,4.8
		c0.8,3.1,1.5,6,2,7h-4.7c-0.4-0.7-1-2.8-1.7-5.9c-0.7-3.3-1.9-4.3-4.5-4.4h-2.3V46h-4.5L301.8,21.3L301.8,21.3z"/>
	<path class="st5" d="M333.5,42.8c4.4,0,6.9-4.1,6.9-9.3c0-4.7-2.3-9.2-6.9-9.2c-4.6,0-7,4.4-7,9.3
		C326.5,38.6,329.1,42.8,333.5,42.8L333.5,42.8L333.5,42.8z M333.3,46.5c-7.1,0-11.6-5.4-11.6-12.8c0-7.7,4.9-13.1,12-13.1
		c7.3,0,11.6,5.5,11.6,12.7C345.3,41.6,340.2,46.4,333.3,46.5L333.3,46.5L333.3,46.5z"/>
	<path class="st5" d="M353.8,21v14.6c0,4.9,2,7.2,5.1,7.2c3.3,0,5.3-2.3,5.3-7.2V21h4.6v14.3c0,7.7-4,11.2-10,11.2
		c-5.8,0-9.6-3.2-9.6-11.1V21H353.8L353.8,21z"/>
	<path class="st5" d="M378.5,33c0.6,0.2,1.3,0.2,2.2,0.2c3.4,0,5.5-1.7,5.5-4.6c0-2.8-1.9-4.2-5.1-4.2c-1.3,0-2.2,0.1-2.6,0.2V33
		L378.5,33z M374,21.3c1.7-0.3,4-0.5,7-0.5c3.4,0,5.8,0.7,7.4,2c1.5,1.2,2.5,3.2,2.5,5.5c0,2.4-0.7,4.3-2.1,5.7
		c-1.9,1.8-4.7,2.7-7.9,2.7c-0.9,0-1.6,0-2.2-0.2v9.5H374V21.3L374,21.3z"/>
	<path class="st5" d="M88.7,48.8c0.1,0,0.2-0.1,0.2-0.1C88.9,48.7,88.8,48.8,88.7,48.8"/>
	<g>
		<g>
			<defs>
				<path id="SVGID_11_" d="M88.7,48.8c0.1,0,0.2-0.1,0.2-0.1C88.9,48.7,88.8,48.8,88.7,48.8"/>
			</defs>
			<clipPath id="SVGID_12_">
				<use xlink:href="#SVGID_11_"  style="overflow:visible;"/>
			</clipPath>
			<polygon class="st6" points="88.7,48.7 89,48.7 89,48.8 88.7,48.8 			"/>
		</g>
	</g>
</g>
<rect x="-2.6" y="116.7" class="st7" width="380.9" height="31.1"/>
<text transform="matrix(1 0 0 1 -2.5902 139.4232)" class="st5 st8 st9">ICS easyWMS</text>
</svg>
