<?xml version="1.0" encoding="utf-8"?>
<!-- Generator: Adobe Illustrator 23.0.1, SVG Export Plug-In . SVG Version: 6.00 Build 0)  -->
<svg version="1.1" id="Ebene_1" xmlns="http://www.w3.org/2000/svg" xmlns:xlink="http://www.w3.org/1999/xlink" x="0px" y="0px"
	 viewBox="0 0 48 48" style="enable-background:new 0 0 48 48;" xml:space="preserve">
<style type="text/css">
	.st0{fill:#FFFFFF;}
	.st1{fill:#2BBAE7;}
</style>
<circle class="st0" cx="24" cy="24" r="24"/>
<polygon class="st1" points="8.02,24.21 19.55,35.71 28.97,35.71 20.67,27.43 40.19,27.43 40.19,20.57 20.67,20.57 28.97,12.29 
	19.55,12.29 8.02,23.79 7.81,24 "/>
</svg>
